module github.com/terraform-providers/terraform-provider-google-beta

require (
	cloud.google.com/go v0.36.0
	github.com/apparentlymart/go-cidr v1.0.0
	github.com/davecgh/go-spew v1.1.1
	github.com/dustinkirkland/golang-petname v0.0.0-20170921220637-d3c2ba80e75e // indirect
	github.com/gammazero/deque v0.0.0-20180920172122-f6adf94963e4 // indirect
	github.com/gammazero/workerpool v0.0.0-20181230203049-86a96b5d5d92
	github.com/hashicorp/errwrap v1.0.0
	github.com/hashicorp/go-cleanhttp v0.5.0
	github.com/hashicorp/go-multierror v1.0.0
	github.com/hashicorp/go-version v1.1.0
	github.com/hashicorp/terraform v0.12.0-alpha4.0.20190404152136-3110dde1d12b
	github.com/keybase/go-crypto v0.0.0-20170628152938-433e2f3d43ef // indirect
	github.com/mitchellh/hashstructure v1.0.0
	github.com/stoewer/go-strcase v1.0.1
	github.com/terraform-providers/terraform-provider-random v0.0.0-20180820145304-a3da7a23d7f9
	golang.org/x/oauth2 v0.0.0-20190220154721-9b3c75971fc9
	google.golang.org/api v0.1.0
)
